module eiger-rolling-hash

go 1.17

require github.com/google/go-cmp v0.5.9

require (
	github.com/inconshreveable/mousetrap v1.0.1 // indirect
	github.com/spf13/cobra v1.6.1 // indirect
	github.com/spf13/pflag v1.0.5 // indirect
)
